_______________________________________________________________________________________________
starting layer 2, path 6_15_, loc 5
_______________________________________________________________________________________________
initial objective function is 0.043620861611119006
-----------------------------------------------------------------------
target value 1.0
-----------------------------------------------------------------------
allowed time = 270.0
Iter     Function value   Gradient norm 
     0     1.004362e+01     1.432862e+02
 * time: 5.9604644775390625e-6
perturbing for the 1.0th time. rate = 0.1
4.002665410009557
Iter     Function value   Gradient norm 
     0     4.002665e+00     4.586035e+02
 * time: 6.198883056640625e-6
    20     2.891989e+00     1.530764e+01
 * time: 5.668511152267456
    40     2.765874e+00     1.022950e+01
 * time: 9.964799165725708
    60     2.651352e+00     9.677831e+00
 * time: 13.9373300075531
    80     2.542351e+00     9.105449e+00
 * time: 17.921998023986816
   100     2.437749e+00     8.689036e+00
 * time: 22.83946204185486
   120     2.340557e+00     8.305892e+00
 * time: 27.61253809928894
   140     2.250124e+00     7.952663e+00
 * time: 32.553662061691284
   160     2.165526e+00     7.622653e+00
 * time: 37.32012104988098
   180     2.086202e+00     7.385450e+00
 * time: 42.19428110122681
   200     2.011995e+00     7.095892e+00
 * time: 46.94696307182312
   220     1.942413e+00     6.826525e+00
 * time: 51.783902168273926
   240     1.876806e+00     6.571983e+00
 * time: 56.49061918258667
   260     1.814835e+00     6.330329e+00
 * time: 61.51044511795044
   280     1.756406e+00     6.103516e+00
 * time: 66.27286911010742
   300     1.700939e+00     5.886341e+00
 * time: 70.81956911087036
   320     1.648431e+00     5.742920e+00
 * time: 75.34565711021423
   340     1.598651e+00     5.546479e+00
 * time: 80.36859011650085
   360     1.551320e+00     5.358322e+00
 * time: 85.18381404876709
   380     1.506536e+00     5.183415e+00
 * time: 89.70725321769714
   400     1.463592e+00     5.069909e+00
 * time: 94.25698804855347
   420     1.422900e+00     4.907274e+00
 * time: 99.12659811973572
   440     1.384176e+00     4.754113e+00
 * time: 104.08034205436707
   460     1.347136e+00     4.606334e+00
 * time: 108.88957905769348
   480     1.311620e+00     4.462894e+00
 * time: 113.78999209403992
   500     1.277647e+00     4.378062e+00
 * time: 118.59398412704468
   520     1.245190e+00     4.245726e+00
 * time: 123.56546306610107
   540     1.213826e+00     4.113709e+00
 * time: 128.4812572002411
   560     1.183892e+00     4.040586e+00
 * time: 133.39343905448914
   580     1.155339e+00     3.923476e+00
 * time: 138.20697212219238
   600     1.127654e+00     3.806282e+00
 * time: 143.179053068161
   620     1.101191e+00     3.744818e+00
 * time: 147.88177800178528
   640     1.075920e+00     3.641015e+00
 * time: 152.74637913703918
   660     1.051382e+00     3.537026e+00
 * time: 157.59482407569885
   680     1.027664e+00     3.481112e+00
 * time: 162.73165702819824
   700     1.005057e+00     3.386250e+00
 * time: 167.49545407295227
   720     9.829351e-01     3.288142e+00
 * time: 172.52400016784668
   740     9.617263e-01     3.239788e+00
 * time: 177.64183807373047
   760     9.413289e-01     3.151354e+00
 * time: 182.70853209495544
   780     9.214196e-01     3.105016e+00
 * time: 187.71131801605225
   800     9.023681e-01     3.020258e+00
 * time: 192.95600819587708
   820     8.839437e-01     2.940070e+00
 * time: 198.04640007019043
   840     8.661023e-01     2.901905e+00
 * time: 203.3319480419159
   860     8.489085e-01     2.826680e+00
 * time: 208.40949606895447
   880     8.320665e-01     2.789263e+00
 * time: 213.6431920528412
   900     8.159051e-01     2.716059e+00
 * time: 219.1119270324707
   920     8.002297e-01     2.646156e+00
 * time: 224.6704671382904
   940     7.849512e-01     2.613522e+00
 * time: 230.3931040763855
   960     7.702520e-01     2.547240e+00
 * time: 235.99143719673157
   980     7.558691e-01     2.517603e+00
 * time: 241.82809209823608
  1000     7.419342e-01     2.451358e+00
 * time: 247.45190000534058
  1020     7.282235e-01     2.419924e+00
 * time: 253.19243216514587
----------------------------------------------
The true error, without regularization: 3.515370620488234e-6
----------------------------------------------
most of the error is from the norm, breaking
-----------------------------------------------------------------------
target value 27.473684210526315
-----------------------------------------------------------------------
allowed time = 283.3202467485366
Iter     Function value   Gradient norm 
     0     7.014849e+02     1.307963e+07
 * time: 7.152557373046875e-6
perturbing for the 1.0th time. rate = 0.1
299.83890864387297
Iter     Function value   Gradient norm 
     0     2.998389e+02     1.146752e+06
 * time: 6.9141387939453125e-6
----------------------------------------------
The true error, without regularization: 296.00404374171046
----------------------------------------------
perturbing for the 2.0th time. rate = 0.1
293.5234249414711
Iter     Function value   Gradient norm 
     0     2.935234e+02     9.907522e+05
 * time: 5.9604644775390625e-6
----------------------------------------------
The true error, without regularization: 292.04657918698285
----------------------------------------------
perturbing for the 3.0th time. rate = 0.1
292.62872077610285
Iter     Function value   Gradient norm 
     0     2.926287e+02     1.065274e+06
 * time: 6.9141387939453125e-6
----------------------------------------------
The true error, without regularization: 291.13102778717155
----------------------------------------------
perturbing for the 4.0th time. rate = 0.1
292.2459220416216
Iter     Function value   Gradient norm 
     0     2.922459e+02     1.126190e+06
 * time: 6.9141387939453125e-6
----------------------------------------------
The true error, without regularization: 290.71174126715795
----------------------------------------------
perturbing for the 5.0th time. rate = 0.1
couldn't find a better location. Adjust stepSize or number of samples K
292.91355566407503
Iter     Function value   Gradient norm 
     0     2.929136e+02     1.173445e+06
 * time: 5.9604644775390625e-6
----------------------------------------------
The true error, without regularization: 291.2637452932614
----------------------------------------------
perturbing for the 6.0th time. rate = 0.080000006
couldn't find a better location. Adjust stepSize or number of samples K
293.22981672573184
Iter     Function value   Gradient norm 
     0     2.932298e+02     1.145438e+06
 * time: 5.0067901611328125e-6
----------------------------------------------
The true error, without regularization: 290.74783712313973
----------------------------------------------
perturbing for the 7.0th time. rate = 0.064
292.4290089491459
Iter     Function value   Gradient norm 
     0     2.924290e+02     9.461942e+05
 * time: 5.9604644775390625e-6
    20     2.900388e+02     7.235038e+05
 * time: 93.32340097427368
----------------------------------------------
The true error, without regularization: 288.01339453306997
----------------------------------------------
perturbing for the 8.0th time. rate = 0.064
289.18397180619377
Iter     Function value   Gradient norm 
     0     2.891840e+02     7.792896e+05
 * time: 9.059906005859375e-6
----------------------------------------------
The true error, without regularization: 287.1038600624668
----------------------------------------------
perturbing for the 9.0th time. rate = 0.064
289.1371564563409
Iter     Function value   Gradient norm 
     0     2.891372e+02     8.195292e+05
 * time: 6.9141387939453125e-6
----------------------------------------------
The true error, without regularization: 287.018313772753
----------------------------------------------
Out of time
-----------------------------------------------------------------------
target value 53.94736842105263
-----------------------------------------------------------------------
allowed time = 282.8865061414048
Iter     Function value   Gradient norm 
     0     1.887005e+03     1.332929e+07
 * time: 5.9604644775390625e-6
perturbing for the 1.0th time. rate = 0.1
1882.7188475656337
Iter     Function value   Gradient norm 
     0     1.882719e+03     1.116360e+07
 * time: 5.9604644775390625e-6
----------------------------------------------
The true error, without regularization: 1880.0716580239848
----------------------------------------------
perturbing for the 2.0th time. rate = 0.1
couldn't find a better location. Adjust stepSize or number of samples K
1883.1633134995516
Iter     Function value   Gradient norm 
     0     1.883163e+03     1.172363e+07
 * time: 8.106231689453125e-6
----------------------------------------------
The true error, without regularization: 1879.6514794245327
----------------------------------------------
perturbing for the 3.0th time. rate = 0.080000006
couldn't find a better location. Adjust stepSize or number of samples K
1883.7221635321569
Iter     Function value   Gradient norm 
     0     1.883722e+03     1.198748e+07
 * time: 9.059906005859375e-6
----------------------------------------------
The true error, without regularization: 1880.7437916607091
----------------------------------------------
perturbing for the 4.0th time. rate = 0.064
couldn't find a better location. Adjust stepSize or number of samples K
1884.8228111331891
Iter     Function value   Gradient norm 
     0     1.884823e+03     1.210790e+07
 * time: 6.9141387939453125e-6
----------------------------------------------
The true error, without regularization: 1881.8422999323316
----------------------------------------------
perturbing for the 5.0th time. rate = 0.051200002
couldn't find a better location. Adjust stepSize or number of samples K
1886.169997020271
Iter     Function value   Gradient norm 
     0     1.886170e+03     1.208116e+07
 * time: 5.9604644775390625e-6
----------------------------------------------
The true error, without regularization: 1883.056257909643
----------------------------------------------
perturbing for the 6.0th time. rate = 0.040960003
couldn't find a better location. Adjust stepSize or number of samples K
1887.7385309591532
Iter     Function value   Gradient norm 
     0     1.887739e+03     1.217958e+07
 * time: 6.9141387939453125e-6
----------------------------------------------
The true error, without regularization: 1880.594851329071
----------------------------------------------
perturbing for the 7.0th time. rate = 0.032768004
couldn't find a better location. Adjust stepSize or number of samples K
1884.0945188170133
Iter     Function value   Gradient norm 
     0     1.884095e+03     1.042384e+07
 * time: 7.867813110351562e-6
----------------------------------------------
The true error, without regularization: 1880.6221424626901
----------------------------------------------
perturbing for the 8.0th time. rate = 0.026214404
couldn't find a better location. Adjust stepSize or number of samples K
1884.5999203779065
Iter     Function value   Gradient norm 
     0     1.884600e+03     1.067807e+07
 * time: 5.9604644775390625e-6
----------------------------------------------
The true error, without regularization: 1881.3342282480987
----------------------------------------------
perturbing for the 9.0th time. rate = 0.020971524
couldn't find a better location. Adjust stepSize or number of samples K
1885.1084952380854
Iter     Function value   Gradient norm 
     0     1.885108e+03     1.050541e+07
 * time: 6.198883056640625e-6
----------------------------------------------
The true error, without regularization: 1881.804866764967
----------------------------------------------
perturbing for the 10.0th time. rate = 0.01677722
couldn't find a better location. Adjust stepSize or number of samples K
1885.717709109933
Iter     Function value   Gradient norm 
     0     1.885718e+03     1.082121e+07
 * time: 5.9604644775390625e-6
----------------------------------------------
The true error, without regularization: 1882.3697296731139
----------------------------------------------
perturbing for the 11.0th time. rate = 0.013421776
couldn't find a better location. Adjust stepSize or number of samples K
1886.239734875006
Iter     Function value   Gradient norm 
     0     1.886240e+03     1.087419e+07
 * time: 5.9604644775390625e-6
----------------------------------------------
The true error, without regularization: 1882.9065675278982
----------------------------------------------
Out of time
-----------------------------------------------------------------------
target value 80.42105263157895
-----------------------------------------------------------------------
allowed time = 282.197724827782
Iter     Function value   Gradient norm 
     0     4.884604e+03     4.421030e+07
 * time: 7.867813110351562e-6
perturbing for the 1.0th time. rate = 0.1
couldn't find a better location. Adjust stepSize or number of samples K
4877.722456850323
Iter     Function value   Gradient norm 
     0     4.877722e+03     3.037121e+07
 * time: 8.106231689453125e-6
----------------------------------------------
The true error, without regularization: 4873.1120850173675
----------------------------------------------
perturbing for the 2.0th time. rate = 0.080000006
couldn't find a better location. Adjust stepSize or number of samples K
4881.668001565895
Iter     Function value   Gradient norm 
     0     4.881668e+03     3.158938e+07
 * time: 7.152557373046875e-6
----------------------------------------------
The true error, without regularization: 4873.555277223049
----------------------------------------------
perturbing for the 3.0th time. rate = 0.064
couldn't find a better location. Adjust stepSize or number of samples K
4881.649348513081
Iter     Function value   Gradient norm 
     0     4.881649e+03     3.083903e+07
 * time: 5.9604644775390625e-6
----------------------------------------------
The true error, without regularization: 4876.682334010742
----------------------------------------------
perturbing for the 4.0th time. rate = 0.051200002
couldn't find a better location. Adjust stepSize or number of samples K
4884.710599959556
Iter     Function value   Gradient norm 
     0     4.884711e+03     3.132719e+07
 * time: 5.0067901611328125e-6
----------------------------------------------
The true error, without regularization: 4879.709214929449
----------------------------------------------
perturbing for the 5.0th time. rate = 0.040960003
couldn't find a better location. Adjust stepSize or number of samples K
4888.284166671844
Iter     Function value   Gradient norm 
     0     4.888284e+03     3.115974e+07
 * time: 8.106231689453125e-6
----------------------------------------------
The true error, without regularization: 4883.049856738219
----------------------------------------------
perturbing for the 6.0th time. rate = 0.032768004
couldn't find a better location. Adjust stepSize or number of samples K
4891.048670861707
Iter     Function value   Gradient norm 
     0     4.891049e+03     3.066366e+07
 * time: 8.106231689453125e-6
----------------------------------------------
The true error, without regularization: 4873.821432540243
----------------------------------------------
perturbing for the 7.0th time. rate = 0.026214404
couldn't find a better location. Adjust stepSize or number of samples K
4879.581908008183
Iter     Function value   Gradient norm 
     0     4.879582e+03     2.406777e+07
 * time: 5.9604644775390625e-6
----------------------------------------------
The true error, without regularization: 4873.864137916797
----------------------------------------------
perturbing for the 8.0th time. rate = 0.020971524
couldn't find a better location. Adjust stepSize or number of samples K
4879.810932012232
Iter     Function value   Gradient norm 
     0     4.879811e+03     2.358671e+07
 * time: 6.198883056640625e-6
----------------------------------------------
The true error, without regularization: 4873.820017561864
----------------------------------------------
perturbing for the 9.0th time. rate = 0.01677722
couldn't find a better location. Adjust stepSize or number of samples K
4880.102916086131
Iter     Function value   Gradient norm 
     0     4.880103e+03     2.365381e+07
 * time: 6.9141387939453125e-6
----------------------------------------------
The true error, without regularization: 4874.25536895216
----------------------------------------------
perturbing for the 10.0th time. rate = 0.013421776
couldn't find a better location. Adjust stepSize or number of samples K
4880.614112713798
Iter     Function value   Gradient norm 
     0     4.880614e+03     2.446762e+07
 * time: 5.0067901611328125e-6
----------------------------------------------
The true error, without regularization: 4874.722834713287
----------------------------------------------
Out of time
-----------------------------------------------------------------------
target value 106.89473684210526
-----------------------------------------------------------------------
allowed time = 281.32221031290993
Iter     Function value   Gradient norm 
     0     9.278198e+03     6.247856e+07
 * time: 6.9141387939453125e-6
perturbing for the 1.0th time. rate = 0.1
couldn't find a better location. Adjust stepSize or number of samples K
9281.028630247389
Iter     Function value   Gradient norm 
     0     9.281029e+03     5.658171e+07
 * time: 1.0013580322265625e-5
----------------------------------------------
The true error, without regularization: 9274.40657057122
----------------------------------------------
perturbing for the 2.0th time. rate = 0.080000006
couldn't find a better location. Adjust stepSize or number of samples K
9285.684717407425
Iter     Function value   Gradient norm 
     0     9.285685e+03     5.746482e+07
 * time: 6.9141387939453125e-6
----------------------------------------------
The true error, without regularization: 9278.736802447964
----------------------------------------------
perturbing for the 3.0th time. rate = 0.064
couldn't find a better location. Adjust stepSize or number of samples K
9291.245446175846
Iter     Function value   Gradient norm 
     0     9.291245e+03     6.096166e+07
 * time: 6.9141387939453125e-6
----------------------------------------------
The true error, without regularization: 9283.812071620645
----------------------------------------------
perturbing for the 4.0th time. rate = 0.051200002
couldn't find a better location. Adjust stepSize or number of samples K
9297.381277769478
Iter     Function value   Gradient norm 
     0     9.297381e+03     6.321928e+07
 * time: 7.152557373046875e-6
----------------------------------------------
The true error, without regularization: 9289.148575172389
----------------------------------------------
perturbing for the 5.0th time. rate = 0.040960003
couldn't find a better location. Adjust stepSize or number of samples K
9301.768798731466
Iter     Function value   Gradient norm 
     0     9.301769e+03     6.259601e+07
 * time: 5.0067901611328125e-6
----------------------------------------------
The true error, without regularization: 9283.432405912685
----------------------------------------------
perturbing for the 6.0th time. rate = 0.032768004
couldn't find a better location. Adjust stepSize or number of samples K
9292.421283908649
Iter     Function value   Gradient norm 
     0     9.292421e+03     5.568755e+07
 * time: 5.0067901611328125e-6
----------------------------------------------
The true error, without regularization: 9283.580329114133
----------------------------------------------
perturbing for the 7.0th time. rate = 0.026214404
couldn't find a better location. Adjust stepSize or number of samples K
9293.730953665205
Iter     Function value   Gradient norm 
     0     9.293731e+03     5.574392e+07
 * time: 5.9604644775390625e-6
----------------------------------------------
The true error, without regularization: 9285.3446573887
----------------------------------------------
perturbing for the 8.0th time. rate = 0.020971524
couldn't find a better location. Adjust stepSize or number of samples K
9295.663886147167
Iter     Function value   Gradient norm 
     0     9.295664e+03     5.610521e+07
 * time: 9.059906005859375e-6
----------------------------------------------
The true error, without regularization: 9286.472657818464
----------------------------------------------
perturbing for the 9.0th time. rate = 0.01677722
couldn't find a better location. Adjust stepSize or number of samples K
9296.717904586158
Iter     Function value   Gradient norm 
     0     9.296718e+03     5.577999e+07
 * time: 5.9604644775390625e-6
----------------------------------------------
The true error, without regularization: 9287.19749787053
----------------------------------------------
perturbing for the 10.0th time. rate = 0.013421776
couldn't find a better location. Adjust stepSize or number of samples K
9296.955684271707
Iter     Function value   Gradient norm 
     0     9.296956e+03     5.526972e+07
 * time: 8.821487426757812e-6
----------------------------------------------
The true error, without regularization: 9286.498167653763
----------------------------------------------
perturbing for the 11.0th time. rate = 0.010737421
couldn't find a better location. Adjust stepSize or number of samples K
9295.799087451102
Iter     Function value   Gradient norm 
     0     9.295799e+03     5.156017e+07
 * time: 1.0013580322265625e-5
----------------------------------------------
The true error, without regularization: 9281.166737246249
----------------------------------------------
perturbing for the 12.0th time. rate = 0.008589937
couldn't find a better location. Adjust stepSize or number of samples K
9290.291231910724
Iter     Function value   Gradient norm 
     0     9.290291e+03     4.778428e+07
 * time: 5.9604644775390625e-6
----------------------------------------------
The true error, without regularization: 9281.014648634815
----------------------------------------------
Out of time
-----------------------------------------------------------------------
target value 133.3684210526316
-----------------------------------------------------------------------
allowed time = 280.3235657757328
Iter     Function value   Gradient norm 
     0     1.509153e+04     1.010508e+08
 * time: 5.9604644775390625e-6
perturbing for the 1.0th time. rate = 0.1
couldn't find a better location. Adjust stepSize or number of samples K
15094.510397075077
Iter     Function value   Gradient norm 
     0     1.509451e+04     9.037362e+07
 * time: 9.059906005859375e-6
----------------------------------------------
The true error, without regularization: 15084.761945957442
----------------------------------------------
perturbing for the 2.0th time. rate = 0.080000006
couldn't find a better location. Adjust stepSize or number of samples K
15101.639802231703
Iter     Function value   Gradient norm 
     0     1.510164e+04     9.610525e+07
 * time: 6.9141387939453125e-6
----------------------------------------------
The true error, without regularization: 15091.295122621827
----------------------------------------------
perturbing for the 3.0th time. rate = 0.064
couldn't find a better location. Adjust stepSize or number of samples K
15113.2527530393
Iter     Function value   Gradient norm 
     0     1.511325e+04     1.006092e+08
 * time: 6.9141387939453125e-6
----------------------------------------------
The true error, without regularization: 15101.990215440113
----------------------------------------------
perturbing for the 4.0th time. rate = 0.051200002
couldn't find a better location. Adjust stepSize or number of samples K
15121.277967726497
Iter     Function value   Gradient norm 
     0     1.512128e+04     9.904298e+07
 * time: 6.198883056640625e-6
----------------------------------------------
The true error, without regularization: 15082.728057270415
----------------------------------------------
perturbing for the 5.0th time. rate = 0.040960003
couldn't find a better location. Adjust stepSize or number of samples K
15094.746699918083
Iter     Function value   Gradient norm 
     0     1.509475e+04     7.771309e+07
 * time: 5.9604644775390625e-6
----------------------------------------------
The true error, without regularization: 15082.371028832253
----------------------------------------------
perturbing for the 6.0th time. rate = 0.032768004
couldn't find a better location. Adjust stepSize or number of samples K
15096.287022376484
Iter     Function value   Gradient norm 
     0     1.509629e+04     7.838393e+07
 * time: 7.152557373046875e-6
----------------------------------------------
The true error, without regularization: 15083.724007194776
----------------------------------------------
perturbing for the 7.0th time. rate = 0.026214404
couldn't find a better location. Adjust stepSize or number of samples K
15098.099191766407
Iter     Function value   Gradient norm 
     0     1.509810e+04     7.892814e+07
 * time: 7.152557373046875e-6
----------------------------------------------
The true error, without regularization: 15085.341825283602
----------------------------------------------
perturbing for the 8.0th time. rate = 0.020971524
couldn't find a better location. Adjust stepSize or number of samples K
15101.202350538171
Iter     Function value   Gradient norm 
     0     1.510120e+04     7.977190e+07
 * time: 5.9604644775390625e-6
----------------------------------------------
The true error, without regularization: 15087.497159796761
----------------------------------------------
perturbing for the 9.0th time. rate = 0.01677722
couldn't find a better location. Adjust stepSize or number of samples K
15102.279255153566
Iter     Function value   Gradient norm 
     0     1.510228e+04     7.967580e+07
 * time: 9.059906005859375e-6
----------------------------------------------
The true error, without regularization: 15089.033946832584
----------------------------------------------
perturbing for the 10.0th time. rate = 0.013421776
couldn't find a better location. Adjust stepSize or number of samples K
15103.72845164711
Iter     Function value   Gradient norm 
     0     1.510373e+04     7.933411e+07
 * time: 1.0967254638671875e-5
----------------------------------------------
The true error, without regularization: 15090.082052749145
----------------------------------------------
perturbing for the 11.0th time. rate = 0.010737421
couldn't find a better location. Adjust stepSize or number of samples K
15104.425259679567
Iter     Function value   Gradient norm 
     0     1.510443e+04     7.692204e+07
 * time: 5.9604644775390625e-6
----------------------------------------------
The true error, without regularization: 15084.600058186425
----------------------------------------------
perturbing for the 12.0th time. rate = 0.008589937
couldn't find a better location. Adjust stepSize or number of samples K
15098.665359807772
Iter     Function value   Gradient norm 
     0     1.509867e+04     7.240442e+07
 * time: 6.9141387939453125e-6
----------------------------------------------
The true error, without regularization: 15085.095842736873
----------------------------------------------
Out of time
-----------------------------------------------------------------------
target value 159.8421052631579
-----------------------------------------------------------------------
allowed time = 279.25016128329446
Iter     Function value   Gradient norm 
     0     2.230258e+04     1.333889e+08
 * time: 5.9604644775390625e-6
perturbing for the 1.0th time. rate = 0.1
couldn't find a better location. Adjust stepSize or number of samples K
22304.098383411943
Iter     Function value   Gradient norm 
     0     2.230410e+04     1.138725e+08
 * time: 8.821487426757812e-6
----------------------------------------------
The true error, without regularization: 22288.44357824032
----------------------------------------------
perturbing for the 2.0th time. rate = 0.080000006
couldn't find a better location. Adjust stepSize or number of samples K
22314.426392082165
Iter     Function value   Gradient norm 
     0     2.231443e+04     1.221557e+08
 * time: 6.9141387939453125e-6
----------------------------------------------
The true error, without regularization: 22295.316925723466
----------------------------------------------
perturbing for the 3.0th time. rate = 0.064
couldn't find a better location. Adjust stepSize or number of samples K
22323.104215630734
Iter     Function value   Gradient norm 
     0     2.232310e+04     1.213281e+08
 * time: 7.867813110351562e-6
----------------------------------------------
The true error, without regularization: 22299.937649726307
----------------------------------------------
perturbing for the 4.0th time. rate = 0.051200002
couldn't find a better location. Adjust stepSize or number of samples K
22322.565116477497
Iter     Function value   Gradient norm 
     0     2.232257e+04     1.134692e+08
 * time: 1.0013580322265625e-5
----------------------------------------------
The true error, without regularization: 22287.292756850442
----------------------------------------------
perturbing for the 5.0th time. rate = 0.040960003
couldn't find a better location. Adjust stepSize or number of samples K
22308.680110026893
Iter     Function value   Gradient norm 
     0     2.230868e+04     9.550444e+07
 * time: 8.106231689453125e-6
----------------------------------------------
The true error, without regularization: 22289.665934387926
----------------------------------------------
perturbing for the 6.0th time. rate = 0.032768004
couldn't find a better location. Adjust stepSize or number of samples K
22313.46950303609
Iter     Function value   Gradient norm 
     0     2.231347e+04     9.708730e+07
 * time: 7.152557373046875e-6
----------------------------------------------
The true error, without regularization: 22292.651986119923
----------------------------------------------
perturbing for the 7.0th time. rate = 0.026214404
couldn't find a better location. Adjust stepSize or number of samples K
22315.92634986839
Iter     Function value   Gradient norm 
     0     2.231593e+04     9.964383e+07
 * time: 7.152557373046875e-6
----------------------------------------------
The true error, without regularization: 22295.968815683802
----------------------------------------------
perturbing for the 8.0th time. rate = 0.020971524
couldn't find a better location. Adjust stepSize or number of samples K
22318.756204884732
Iter     Function value   Gradient norm 
     0     2.231876e+04     1.008844e+08
 * time: 7.867813110351562e-6
----------------------------------------------
The true error, without regularization: 22298.608869993976
----------------------------------------------
perturbing for the 9.0th time. rate = 0.01677722
couldn't find a better location. Adjust stepSize or number of samples K
22321.56351498927
Iter     Function value   Gradient norm 
     0     2.232156e+04     1.013871e+08
 * time: 7.152557373046875e-6
----------------------------------------------
The true error, without regularization: 22300.37664047023
----------------------------------------------
perturbing for the 10.0th time. rate = 0.013421776
couldn't find a better location. Adjust stepSize or number of samples K
22323.222205929906
Iter     Function value   Gradient norm 
     0     2.232322e+04     9.823728e+07
 * time: 8.106231689453125e-6
----------------------------------------------
The true error, without regularization: 22288.03253523572
----------------------------------------------
Out of time
-----------------------------------------------------------------------
target value 186.31578947368422
-----------------------------------------------------------------------
allowed time = 279.1098084282663
Iter     Function value   Gradient norm 
     0     3.091445e+04     1.316134e+08
 * time: 8.106231689453125e-6
perturbing for the 1.0th time. rate = 0.1
couldn't find a better location. Adjust stepSize or number of samples K
30922.931687351207
Iter     Function value   Gradient norm 
     0     3.092293e+04     1.375172e+08
 * time: 4.76837158203125e-6
----------------------------------------------
The true error, without regularization: 30898.125041967654
----------------------------------------------
perturbing for the 2.0th time. rate = 0.080000006
couldn't find a better location. Adjust stepSize or number of samples K
30940.536766841044
Iter     Function value   Gradient norm 
     0     3.094054e+04     1.401400e+08
 * time: 6.9141387939453125e-6
----------------------------------------------
The true error, without regularization: 30891.43412451722
----------------------------------------------
perturbing for the 3.0th time. rate = 0.064
couldn't find a better location. Adjust stepSize or number of samples K
30923.592434018945
Iter     Function value   Gradient norm 
     0     3.092359e+04     1.191624e+08
 * time: 5.9604644775390625e-6
----------------------------------------------
The true error, without regularization: 30896.953490544038
----------------------------------------------
perturbing for the 4.0th time. rate = 0.051200002
couldn't find a better location. Adjust stepSize or number of samples K
30930.389762402265
Iter     Function value   Gradient norm 
     0     3.093039e+04     1.211952e+08
 * time: 5.0067901611328125e-6
----------------------------------------------
The true error, without regularization: 30901.409028350867
----------------------------------------------
perturbing for the 5.0th time. rate = 0.040960003
couldn't find a better location. Adjust stepSize or number of samples K
30936.863679166636
Iter     Function value   Gradient norm 
     0     3.093686e+04     1.231455e+08
 * time: 5.0067901611328125e-6
----------------------------------------------
The true error, without regularization: 30908.658411438762
----------------------------------------------
perturbing for the 6.0th time. rate = 0.032768004
couldn't find a better location. Adjust stepSize or number of samples K
30945.630694385894
Iter     Function value   Gradient norm 
     0     3.094563e+04     1.269999e+08
 * time: 5.9604644775390625e-6
----------------------------------------------
The true error, without regularization: 30915.42688443805
----------------------------------------------
perturbing for the 7.0th time. rate = 0.026214404
couldn't find a better location. Adjust stepSize or number of samples K
30952.628971868362
Iter     Function value   Gradient norm 
     0     3.095263e+04     1.264608e+08
 * time: 6.198883056640625e-6
----------------------------------------------
The true error, without regularization: 30919.043088648254
----------------------------------------------
perturbing for the 8.0th time. rate = 0.020971524
couldn't find a better location. Adjust stepSize or number of samples K
30953.608245565225
Iter     Function value   Gradient norm 
     0     3.095361e+04     1.130039e+08
 * time: 5.0067901611328125e-6
----------------------------------------------
The true error, without regularization: 30890.982701451176
----------------------------------------------
perturbing for the 9.0th time. rate = 0.01677722
30921.499129865846
Iter     Function value   Gradient norm 
     0     3.092150e+04     8.352778e+07
 * time: 8.821487426757812e-6
----------------------------------------------
The true error, without regularization: 30889.26948893792
----------------------------------------------
perturbing for the 10.0th time. rate = 0.01677722
30919.913746351303
Iter     Function value   Gradient norm 
     0     3.091991e+04     8.751160e+07
 * time: 1.0013580322265625e-5
----------------------------------------------
The true error, without regularization: 30887.57127585396
----------------------------------------------
perturbing for the 11.0th time. rate = 0.01677722
30919.44996320636
Iter     Function value   Gradient norm 
     0     3.091945e+04     8.915142e+07
 * time: 8.106231689453125e-6
----------------------------------------------
The true error, without regularization: 30886.769833964558
----------------------------------------------
Out of time
-----------------------------------------------------------------------
target value 212.78947368421052
-----------------------------------------------------------------------
allowed time = 278.56211982150063
Iter     Function value   Gradient norm 
     0     4.092560e+04     1.320668e+08
 * time: 7.152557373046875e-6
perturbing for the 1.0th time. rate = 0.1
couldn't find a better location. Adjust stepSize or number of samples K
40946.084948124815
Iter     Function value   Gradient norm 
     0     4.094608e+04     1.471929e+08
 * time: 5.9604644775390625e-6
----------------------------------------------
The true error, without regularization: 40909.0669279835
----------------------------------------------
perturbing for the 2.0th time. rate = 0.080000006
couldn't find a better location. Adjust stepSize or number of samples K
40970.331798434665
Iter     Function value   Gradient norm 
     0     4.097033e+04     1.501913e+08
 * time: 7.867813110351562e-6
----------------------------------------------
The true error, without regularization: 40900.25685382299
----------------------------------------------
perturbing for the 3.0th time. rate = 0.064
couldn't find a better location. Adjust stepSize or number of samples K
40951.88058640677
Iter     Function value   Gradient norm 
     0     4.095188e+04     1.247490e+08
 * time: 5.9604644775390625e-6
----------------------------------------------
The true error, without regularization: 40911.07748878739
----------------------------------------------
perturbing for the 4.0th time. rate = 0.051200002
couldn't find a better location. Adjust stepSize or number of samples K
40969.816939484575
Iter     Function value   Gradient norm 
     0     4.096982e+04     1.311473e+08
 * time: 5.9604644775390625e-6
----------------------------------------------
The true error, without regularization: 40906.74879739662
----------------------------------------------
perturbing for the 5.0th time. rate = 0.040960003
couldn't find a better location. Adjust stepSize or number of samples K
40958.045514401
Iter     Function value   Gradient norm 
     0     4.095805e+04     1.199521e+08
 * time: 5.0067901611328125e-6
----------------------------------------------
The true error, without regularization: 40912.52636733127
----------------------------------------------
perturbing for the 6.0th time. rate = 0.032768004
couldn't find a better location. Adjust stepSize or number of samples K
40964.05561116178
Iter     Function value   Gradient norm 
     0     4.096406e+04     1.201232e+08
 * time: 6.9141387939453125e-6
----------------------------------------------
The true error, without regularization: 40916.4526766996
----------------------------------------------
perturbing for the 7.0th time. rate = 0.026214404
couldn't find a better location. Adjust stepSize or number of samples K
40969.25526618081
Iter     Function value   Gradient norm 
     0     4.096926e+04     1.188251e+08
 * time: 5.0067901611328125e-6
----------------------------------------------
The true error, without regularization: 40922.769202110656
----------------------------------------------
perturbing for the 8.0th time. rate = 0.020971524
couldn't find a better location. Adjust stepSize or number of samples K
40976.225183504066
Iter     Function value   Gradient norm 
     0     4.097623e+04     1.230363e+08
 * time: 5.9604644775390625e-6
----------------------------------------------
The true error, without regularization: 40928.82669744298
----------------------------------------------
perturbing for the 9.0th time. rate = 0.01677722
couldn't find a better location. Adjust stepSize or number of samples K
40982.210109307074
Iter     Function value   Gradient norm 
     0     4.098221e+04     1.225336e+08
 * time: 5.9604644775390625e-6
----------------------------------------------
The true error, without regularization: 40929.759174687526
----------------------------------------------
perturbing for the 10.0th time. rate = 0.013421776
couldn't find a better location. Adjust stepSize or number of samples K
40982.56853130785
Iter     Function value   Gradient norm 
     0     4.098257e+04     1.150172e+08
 * time: 7.867813110351562e-6
----------------------------------------------
The true error, without regularization: 40901.538745820544
----------------------------------------------
perturbing for the 11.0th time. rate = 0.010737421
40950.86199804588
Iter     Function value   Gradient norm 
     0     4.095086e+04     8.971826e+07
 * time: 6.198883056640625e-6
----------------------------------------------
The true error, without regularization: 40900.18152067309
----------------------------------------------
Out of time
-----------------------------------------------------------------------
target value 239.26315789473685
-----------------------------------------------------------------------
allowed time = 277.6099176748448
Iter     Function value   Gradient norm 
     0     5.235927e+04     1.323626e+08
 * time: 6.9141387939453125e-6
perturbing for the 1.0th time. rate = 0.1
couldn't find a better location. Adjust stepSize or number of samples K
52367.1084221178
Iter     Function value   Gradient norm 
     0     5.236711e+04     1.300646e+08
 * time: 5.0067901611328125e-6
----------------------------------------------
The true error, without regularization: 52308.072628834634
----------------------------------------------
perturbing for the 2.0th time. rate = 0.080000006
couldn't find a better location. Adjust stepSize or number of samples K
52387.05507741124
Iter     Function value   Gradient norm 
     0     5.238706e+04     1.310941e+08
 * time: 8.106231689453125e-6
----------------------------------------------
The true error, without regularization: 52326.11663694589
----------------------------------------------
perturbing for the 3.0th time. rate = 0.064
couldn't find a better location. Adjust stepSize or number of samples K
52410.67996537127
Iter     Function value   Gradient norm 
     0     5.241068e+04     1.356290e+08
 * time: 7.152557373046875e-6
----------------------------------------------
The true error, without regularization: 52307.799595561315
----------------------------------------------
perturbing for the 4.0th time. rate = 0.051200002
couldn't find a better location. Adjust stepSize or number of samples K
52378.29173463397
Iter     Function value   Gradient norm 
     0     5.237829e+04     1.105642e+08
 * time: 7.867813110351562e-6
----------------------------------------------
The true error, without regularization: 52312.45813819167
----------------------------------------------
perturbing for the 5.0th time. rate = 0.040960003
couldn't find a better location. Adjust stepSize or number of samples K
52393.118280493494
Iter     Function value   Gradient norm 
     0     5.239312e+04     1.166347e+08
 * time: 7.867813110351562e-6
----------------------------------------------
The true error, without regularization: 52305.639873237364
----------------------------------------------
perturbing for the 6.0th time. rate = 0.032768004
couldn't find a better location. Adjust stepSize or number of samples K
52381.49987963785
Iter     Function value   Gradient norm 
     0     5.238150e+04     1.031665e+08
 * time: 5.9604644775390625e-6
----------------------------------------------
The true error, without regularization: 52308.99099440539
----------------------------------------------
perturbing for the 7.0th time. rate = 0.026214404
couldn't find a better location. Adjust stepSize or number of samples K
52387.91718310911
Iter     Function value   Gradient norm 
     0     5.238792e+04     1.075130e+08
 * time: 7.867813110351562e-6
----------------------------------------------
The true error, without regularization: 52313.688501476776
----------------------------------------------
perturbing for the 8.0th time. rate = 0.020971524
couldn't find a better location. Adjust stepSize or number of samples K
52392.191726937745
Iter     Function value   Gradient norm 
     0     5.239219e+04     1.074705e+08
 * time: 8.106231689453125e-6
----------------------------------------------
The true error, without regularization: 52318.21009115955
----------------------------------------------
perturbing for the 9.0th time. rate = 0.01677722
couldn't find a better location. Adjust stepSize or number of samples K
52398.10838525151
Iter     Function value   Gradient norm 
     0     5.239811e+04     1.097617e+08
 * time: 5.0067901611328125e-6
----------------------------------------------
The true error, without regularization: 52323.023577057436
----------------------------------------------
perturbing for the 10.0th time. rate = 0.013421776
couldn't find a better location. Adjust stepSize or number of samples K
52402.42649996634
Iter     Function value   Gradient norm 
     0     5.240243e+04     1.090575e+08
 * time: 6.9141387939453125e-6
----------------------------------------------
The true error, without regularization: 52321.779022071045
----------------------------------------------
perturbing for the 11.0th time. rate = 0.010737421
couldn't find a better location. Adjust stepSize or number of samples K
52400.87652699146
Iter     Function value   Gradient norm 
     0     5.240088e+04     1.051171e+08
 * time: 5.9604644775390625e-6
----------------------------------------------
The true error, without regularization: 52319.54993937055
----------------------------------------------
Out of time
-----------------------------------------------------------------------
target value 265.7368421052632
-----------------------------------------------------------------------
allowed time = 277.3089952599329
Iter     Function value   Gradient norm 
     0     6.520769e+04     1.411728e+08
 * time: 5.0067901611328125e-6
perturbing for the 1.0th time. rate = 0.1
65197.281378924614
Iter     Function value   Gradient norm 
     0     6.519728e+04     1.078075e+08
 * time: 5.0067901611328125e-6
----------------------------------------------
The true error, without regularization: 65110.13232493717
----------------------------------------------
perturbing for the 2.0th time. rate = 0.1
couldn't find a better location. Adjust stepSize or number of samples K
65221.19270114903
Iter     Function value   Gradient norm 
     0     6.522119e+04     1.106695e+08
 * time: 5.0067901611328125e-6
----------------------------------------------
The true error, without regularization: 65128.1525865828
----------------------------------------------
perturbing for the 3.0th time. rate = 0.080000006
couldn't find a better location. Adjust stepSize or number of samples K
65260.357492134855
Iter     Function value   Gradient norm 
     0     6.526036e+04     1.211360e+08
 * time: 6.198883056640625e-6
----------------------------------------------
The true error, without regularization: 65147.4036130803
----------------------------------------------
perturbing for the 4.0th time. rate = 0.064
couldn't find a better location. Adjust stepSize or number of samples K
65273.86187488667
Iter     Function value   Gradient norm 
     0     6.527386e+04     1.100851e+08
 * time: 7.867813110351562e-6
----------------------------------------------
The true error, without regularization: 65158.765668498265
----------------------------------------------
perturbing for the 5.0th time. rate = 0.051200002
couldn't find a better location. Adjust stepSize or number of samples K
65280.26121961719
Iter     Function value   Gradient norm 
     0     6.528026e+04     9.920410e+07
 * time: 7.152557373046875e-6
----------------------------------------------
The true error, without regularization: 65135.94622403358
----------------------------------------------
perturbing for the 6.0th time. rate = 0.040960003
couldn't find a better location. Adjust stepSize or number of samples K
65254.30355808162
Iter     Function value   Gradient norm 
     0     6.525430e+04     8.809438e+07
 * time: 5.9604644775390625e-6
----------------------------------------------
The true error, without regularization: 65120.912173532764
----------------------------------------------
perturbing for the 7.0th time. rate = 0.032768004
couldn't find a better location. Adjust stepSize or number of samples K
65241.92037202261
Iter     Function value   Gradient norm 
     0     6.524192e+04     8.192489e+07
 * time: 6.198883056640625e-6
----------------------------------------------
The true error, without regularization: 65119.912243766805
----------------------------------------------
perturbing for the 8.0th time. rate = 0.026214404
couldn't find a better location. Adjust stepSize or number of samples K
65247.15688312272
Iter     Function value   Gradient norm 
     0     6.524716e+04     8.323326e+07
 * time: 6.9141387939453125e-6
----------------------------------------------
The true error, without regularization: 65122.38013279205
----------------------------------------------
perturbing for the 9.0th time. rate = 0.020971524
couldn't find a better location. Adjust stepSize or number of samples K
65252.301189949365
Iter     Function value   Gradient norm 
     0     6.525230e+04     8.393788e+07
 * time: 5.9604644775390625e-6
----------------------------------------------
The true error, without regularization: 65126.48186298912
----------------------------------------------
perturbing for the 10.0th time. rate = 0.01677722
couldn't find a better location. Adjust stepSize or number of samples K
65257.10028410133
Iter     Function value   Gradient norm 
     0     6.525710e+04     8.307502e+07
 * time: 5.9604644775390625e-6
----------------------------------------------
The true error, without regularization: 65128.891475084005
----------------------------------------------
perturbing for the 11.0th time. rate = 0.013421776
couldn't find a better location. Adjust stepSize or number of samples K
65261.930832718994
Iter     Function value   Gradient norm 
     0     6.526193e+04     8.570302e+07
 * time: 5.0067901611328125e-6
----------------------------------------------
The true error, without regularization: 65132.73765015576
----------------------------------------------
perturbing for the 12.0th time. rate = 0.010737421
couldn't find a better location. Adjust stepSize or number of samples K
65266.27914014139
Iter     Function value   Gradient norm 
     0     6.526628e+04     8.754534e+07
 * time: 7.152557373046875e-6
----------------------------------------------
The true error, without regularization: 65135.43278364491
----------------------------------------------
Out of time
-----------------------------------------------------------------------
target value 292.2105263157895
-----------------------------------------------------------------------
allowed time = 276.9195230006527
Iter     Function value   Gradient norm 
     0     7.947935e+04     1.154156e+08
 * time: 6.9141387939453125e-6
perturbing for the 1.0th time. rate = 0.1
couldn't find a better location. Adjust stepSize or number of samples K
79486.52569659134
Iter     Function value   Gradient norm 
     0     7.948653e+04     8.483783e+07
 * time: 7.152557373046875e-6
----------------------------------------------
The true error, without regularization: 79335.14099656958
----------------------------------------------
perturbing for the 2.0th time. rate = 0.080000006
couldn't find a better location. Adjust stepSize or number of samples K
79510.75193203546
Iter     Function value   Gradient norm 
     0     7.951075e+04     9.159095e+07
 * time: 6.9141387939453125e-6
----------------------------------------------
The true error, without regularization: 79346.0301190445
----------------------------------------------
perturbing for the 3.0th time. rate = 0.064
couldn't find a better location. Adjust stepSize or number of samples K
79533.76084694816
Iter     Function value   Gradient norm 
     0     7.953376e+04     8.870002e+07
 * time: 5.0067901611328125e-6
----------------------------------------------
The true error, without regularization: 79323.62539215661
----------------------------------------------
perturbing for the 4.0th time. rate = 0.051200002
couldn't find a better location. Adjust stepSize or number of samples K
79519.46272896076
Iter     Function value   Gradient norm 
     0     7.951946e+04     7.885610e+07
 * time: 5.0067901611328125e-6
----------------------------------------------
The true error, without regularization: 79341.54365871455
----------------------------------------------
perturbing for the 5.0th time. rate = 0.040960003
couldn't find a better location. Adjust stepSize or number of samples K
79541.16891836419
Iter     Function value   Gradient norm 
     0     7.954117e+04     8.006051e+07
 * time: 5.9604644775390625e-6
----------------------------------------------
The true error, without regularization: 79354.92679806506
----------------------------------------------
perturbing for the 6.0th time. rate = 0.032768004
couldn't find a better location. Adjust stepSize or number of samples K
79558.72442195582
Iter     Function value   Gradient norm 
     0     7.955872e+04     8.194997e+07
 * time: 1.0013580322265625e-5
----------------------------------------------
The true error, without regularization: 79369.25727190274
----------------------------------------------
perturbing for the 7.0th time. rate = 0.026214404
couldn't find a better location. Adjust stepSize or number of samples K
79573.1644512354
Iter     Function value   Gradient norm 
     0     7.957316e+04     8.027325e+07
 * time: 6.9141387939453125e-6
----------------------------------------------
The true error, without regularization: 79331.59193870681
----------------------------------------------
perturbing for the 8.0th time. rate = 0.020971524
couldn't find a better location. Adjust stepSize or number of samples K
79533.80984867862
Iter     Function value   Gradient norm 
     0     7.953381e+04     6.794451e+07
 * time: 6.9141387939453125e-6
----------------------------------------------
The true error, without regularization: 79333.65770210045
----------------------------------------------
perturbing for the 9.0th time. rate = 0.01677722
couldn't find a better location. Adjust stepSize or number of samples K
79541.34626277073
Iter     Function value   Gradient norm 
     0     7.954135e+04     7.000243e+07
 * time: 6.198883056640625e-6
----------------------------------------------
The true error, without regularization: 79340.10262812195
----------------------------------------------
perturbing for the 10.0th time. rate = 0.013421776
couldn't find a better location. Adjust stepSize or number of samples K
79549.04001483427
Iter     Function value   Gradient norm 
     0     7.954904e+04     6.858911e+07
 * time: 7.152557373046875e-6
----------------------------------------------
The true error, without regularization: 79345.12917753511
----------------------------------------------
perturbing for the 11.0th time. rate = 0.010737421
couldn't find a better location. Adjust stepSize or number of samples K
79554.32223676477
Iter     Function value   Gradient norm 
     0     7.955432e+04     7.056237e+07
 * time: 7.867813110351562e-6
----------------------------------------------
The true error, without regularization: 79349.02636825481
----------------------------------------------
Out of time
-----------------------------------------------------------------------
target value 318.6842105263158
-----------------------------------------------------------------------
allowed time = 276.1628018352649
Iter     Function value   Gradient norm 
     0     9.516984e+04     9.005154e+07
 * time: 7.867813110351562e-6
perturbing for the 1.0th time. rate = 0.1
couldn't find a better location. Adjust stepSize or number of samples K
95171.63082045902
Iter     Function value   Gradient norm 
     0     9.517163e+04     7.232395e+07
 * time: 7.867813110351562e-6
----------------------------------------------
The true error, without regularization: 94941.48574603364
----------------------------------------------
perturbing for the 2.0th time. rate = 0.080000006
couldn't find a better location. Adjust stepSize or number of samples K
95220.44138473239
Iter     Function value   Gradient norm 
     0     9.522044e+04     7.653852e+07
 * time: 6.198883056640625e-6
----------------------------------------------
The true error, without regularization: 94968.35321057023
----------------------------------------------
perturbing for the 3.0th time. rate = 0.064
couldn't find a better location. Adjust stepSize or number of samples K
95245.92781870291
Iter     Function value   Gradient norm 
     0     9.524593e+04     7.451080e+07
 * time: 6.198883056640625e-6
----------------------------------------------
The true error, without regularization: 94981.60768252629
----------------------------------------------
perturbing for the 4.0th time. rate = 0.051200002
couldn't find a better location. Adjust stepSize or number of samples K
95275.11085273736
Iter     Function value   Gradient norm 
     0     9.527511e+04     7.520681e+07
 * time: 5.9604644775390625e-6
----------------------------------------------
The true error, without regularization: 95003.6590714859
----------------------------------------------
perturbing for the 5.0th time. rate = 0.040960003
couldn't find a better location. Adjust stepSize or number of samples K
95305.01461470606
Iter     Function value   Gradient norm 
     0     9.530501e+04     7.452670e+07
 * time: 8.106231689453125e-6
----------------------------------------------
The true error, without regularization: 94965.86459784156
----------------------------------------------
perturbing for the 6.0th time. rate = 0.032768004
couldn't find a better location. Adjust stepSize or number of samples K
95261.16059608993
Iter     Function value   Gradient norm 
     0     9.526116e+04     6.288711e+07
 * time: 6.9141387939453125e-6
----------------------------------------------
The true error, without regularization: 94968.16704065943
----------------------------------------------
perturbing for the 7.0th time. rate = 0.026214404
couldn't find a better location. Adjust stepSize or number of samples K
95276.39714379818
Iter     Function value   Gradient norm 
     0     9.527640e+04     6.440259e+07
 * time: 7.152557373046875e-6
----------------------------------------------
The true error, without regularization: 94975.02569316627
----------------------------------------------
perturbing for the 8.0th time. rate = 0.020971524
couldn't find a better location. Adjust stepSize or number of samples K
95285.88814568068
Iter     Function value   Gradient norm 
     0     9.528589e+04     6.416905e+07
 * time: 5.9604644775390625e-6
----------------------------------------------
The true error, without regularization: 94978.54729487016
----------------------------------------------
perturbing for the 9.0th time. rate = 0.01677722
couldn't find a better location. Adjust stepSize or number of samples K
95292.49912812724
Iter     Function value   Gradient norm 
     0     9.529250e+04     6.409461e+07
 * time: 5.0067901611328125e-6
----------------------------------------------
The true error, without regularization: 94981.79234697678
----------------------------------------------
perturbing for the 10.0th time. rate = 0.013421776
couldn't find a better location. Adjust stepSize or number of samples K
95299.54595757143
Iter     Function value   Gradient norm 
     0     9.529955e+04     6.358629e+07
 * time: 5.0067901611328125e-6
----------------------------------------------
The true error, without regularization: 94979.84512568658
----------------------------------------------
perturbing for the 11.0th time. rate = 0.010737421
couldn't find a better location. Adjust stepSize or number of samples K
95299.39042172297
Iter     Function value   Gradient norm 
     0     9.529939e+04     6.119377e+07
 * time: 7.152557373046875e-6
----------------------------------------------
The true error, without regularization: 94974.51512217917
----------------------------------------------
perturbing for the 12.0th time. rate = 0.008589937
couldn't find a better location. Adjust stepSize or number of samples K
95297.28245556737
Iter     Function value   Gradient norm 
     0     9.529728e+04     5.919552e+07
 * time: 5.9604644775390625e-6
----------------------------------------------
The true error, without regularization: 94972.04584224717
----------------------------------------------
Out of time
-----------------------------------------------------------------------
target value 345.1578947368421
-----------------------------------------------------------------------
allowed time = 275.93483385484166
Iter     Function value   Gradient norm 
     0     1.123087e+05     7.427521e+07
 * time: 5.9604644775390625e-6
perturbing for the 1.0th time. rate = 0.1
couldn't find a better location. Adjust stepSize or number of samples K
112337.65428939751
Iter     Function value   Gradient norm 
     0     1.123377e+05     6.343069e+07
 * time: 5.0067901611328125e-6
----------------------------------------------
The true error, without regularization: 111974.98941812264
----------------------------------------------
perturbing for the 2.0th time. rate = 0.080000006
couldn't find a better location. Adjust stepSize or number of samples K
112390.79256314307
Iter     Function value   Gradient norm 
     0     1.123908e+05     6.359178e+07
 * time: 6.9141387939453125e-6
----------------------------------------------
The true error, without regularization: 112004.22494530711
----------------------------------------------
perturbing for the 3.0th time. rate = 0.064
couldn't find a better location. Adjust stepSize or number of samples K
112440.99817315904
Iter     Function value   Gradient norm 
     0     1.124410e+05     6.414737e+07
 * time: 7.867813110351562e-6
----------------------------------------------
The true error, without regularization: 111973.77371051392
----------------------------------------------
perturbing for the 4.0th time. rate = 0.051200002
couldn't find a better location. Adjust stepSize or number of samples K
112416.57677823014
Iter     Function value   Gradient norm 
     0     1.124166e+05     5.446896e+07
 * time: 6.9141387939453125e-6
----------------------------------------------
The true error, without regularization: 111989.34463531287
----------------------------------------------
perturbing for the 5.0th time. rate = 0.040960003
couldn't find a better location. Adjust stepSize or number of samples K
112446.47712961205
Iter     Function value   Gradient norm 
     0     1.124465e+05     5.627040e+07
 * time: 5.9604644775390625e-6
----------------------------------------------
The true error, without regularization: 112007.13324594901
----------------------------------------------
perturbing for the 6.0th time. rate = 0.032768004
couldn't find a better location. Adjust stepSize or number of samples K
112476.50811252433
Iter     Function value   Gradient norm 
     0     1.124765e+05     5.558393e+07
 * time: 7.152557373046875e-6
----------------------------------------------
The true error, without regularization: 112023.91679166195
----------------------------------------------
perturbing for the 7.0th time. rate = 0.026214404
couldn't find a better location. Adjust stepSize or number of samples K
112502.67480527115
Iter     Function value   Gradient norm 
     0     1.125027e+05     5.777401e+07
 * time: 7.867813110351562e-6
----------------------------------------------
The true error, without regularization: 112041.8682958986
----------------------------------------------
perturbing for the 8.0th time. rate = 0.020971524
couldn't find a better location. Adjust stepSize or number of samples K
112523.71026408758
Iter     Function value   Gradient norm 
     0     1.125237e+05     5.821021e+07
 * time: 5.0067901611328125e-6
----------------------------------------------
The true error, without regularization: 112048.30305590722
----------------------------------------------
perturbing for the 9.0th time. rate = 0.01677722
couldn't find a better location. Adjust stepSize or number of samples K
112533.75553305133
Iter     Function value   Gradient norm 
     0     1.125338e+05     5.423658e+07
 * time: 7.152557373046875e-6
----------------------------------------------
The true error, without regularization: 111971.55358537604
----------------------------------------------
perturbing for the 10.0th time. rate = 0.013421776
couldn't find a better location. Adjust stepSize or number of samples K
112466.68348564873
Iter     Function value   Gradient norm 
     0     1.124667e+05     4.029851e+07
 * time: 7.152557373046875e-6
----------------------------------------------
The true error, without regularization: 111972.0573693355
----------------------------------------------
perturbing for the 11.0th time. rate = 0.010737421
couldn't find a better location. Adjust stepSize or number of samples K
112469.67609039345
Iter     Function value   Gradient norm 
     0     1.124697e+05     4.109656e+07
 * time: 8.106231689453125e-6
----------------------------------------------
The true error, without regularization: 111974.91851612166
----------------------------------------------
Out of time
-----------------------------------------------------------------------
target value 371.63157894736844
-----------------------------------------------------------------------
allowed time = 274.71825098786115
Iter     Function value   Gradient norm 
     0     1.308881e+05     5.301346e+07
 * time: 5.9604644775390625e-6
perturbing for the 1.0th time. rate = 0.1
couldn't find a better location. Adjust stepSize or number of samples K
130950.3014301564
Iter     Function value   Gradient norm 
     0     1.309503e+05     5.312627e+07
 * time: 6.198883056640625e-6
----------------------------------------------
The true error, without regularization: 130410.55296266946
----------------------------------------------
perturbing for the 2.0th time. rate = 0.080000006
couldn't find a better location. Adjust stepSize or number of samples K
131033.37585664222
Iter     Function value   Gradient norm 
     0     1.310334e+05     5.356936e+07
 * time: 7.152557373046875e-6
----------------------------------------------
The true error, without regularization: 130458.5885549715
----------------------------------------------
perturbing for the 3.0th time. rate = 0.064
couldn't find a better location. Adjust stepSize or number of samples K
131109.37340072842
Iter     Function value   Gradient norm 
     0     1.311094e+05     5.470246e+07
 * time: 8.106231689453125e-6
----------------------------------------------
The true error, without regularization: 130408.12724979431
----------------------------------------------
perturbing for the 4.0th time. rate = 0.051200002
couldn't find a better location. Adjust stepSize or number of samples K
131057.85447076985
Iter     Function value   Gradient norm 
     0     1.310579e+05     4.079380e+07
 * time: 5.0067901611328125e-6
----------------------------------------------
The true error, without regularization: 130404.48090273519
----------------------------------------------
perturbing for the 5.0th time. rate = 0.040960003
couldn't find a better location. Adjust stepSize or number of samples K
131087.58567340046
Iter     Function value   Gradient norm 
     0     1.310876e+05     4.121092e+07
 * time: 8.106231689453125e-6
----------------------------------------------
The true error, without regularization: 130413.23688367182
----------------------------------------------
perturbing for the 6.0th time. rate = 0.032768004
couldn't find a better location. Adjust stepSize or number of samples K
131113.7614584732
Iter     Function value   Gradient norm 
     0     1.311138e+05     4.290495e+07
 * time: 7.867813110351562e-6
----------------------------------------------
The true error, without regularization: 130423.3496187009
----------------------------------------------
perturbing for the 7.0th time. rate = 0.026214404
couldn't find a better location. Adjust stepSize or number of samples K
131140.63754070387
Iter     Function value   Gradient norm 
     0     1.311406e+05     4.344340e+07
 * time: 8.106231689453125e-6
----------------------------------------------
The true error, without regularization: 130436.15940686641
----------------------------------------------
perturbing for the 8.0th time. rate = 0.020971524
couldn't find a better location. Adjust stepSize or number of samples K
131163.2203754561
Iter     Function value   Gradient norm 
     0     1.311632e+05     4.359839e+07
 * time: 6.9141387939453125e-6
----------------------------------------------
The true error, without regularization: 130445.83386322038
----------------------------------------------
perturbing for the 9.0th time. rate = 0.01677722
couldn't find a better location. Adjust stepSize or number of samples K
131179.08088879977
Iter     Function value   Gradient norm 
     0     1.311791e+05     4.354275e+07
 * time: 9.059906005859375e-6
----------------------------------------------
The true error, without regularization: 130451.92510035551
----------------------------------------------
perturbing for the 10.0th time. rate = 0.013421776
couldn't find a better location. Adjust stepSize or number of samples K
131194.92420429573
Iter     Function value   Gradient norm 
     0     1.311949e+05     4.382876e+07
 * time: 5.9604644775390625e-6
----------------------------------------------
The true error, without regularization: 130459.81455644069
----------------------------------------------
perturbing for the 11.0th time. rate = 0.010737421
couldn't find a better location. Adjust stepSize or number of samples K
131209.51850475
Iter     Function value   Gradient norm 
     0     1.312095e+05     4.294537e+07
 * time: 9.059906005859375e-6
----------------------------------------------
The true error, without regularization: 130468.66499023729
----------------------------------------------
perturbing for the 12.0th time. rate = 0.008589937
couldn't find a better location. Adjust stepSize or number of samples K
131220.85351297676
Iter     Function value   Gradient norm 
     0     1.312209e+05     4.473330e+07
 * time: 6.198883056640625e-6
----------------------------------------------
The true error, without regularization: 130474.6500967975
----------------------------------------------
Out of time
-----------------------------------------------------------------------
target value 398.10526315789474
-----------------------------------------------------------------------
allowed time = 273.92790003527705
Iter     Function value   Gradient norm 
     0     1.510469e+05     5.392731e+07
 * time: 5.9604644775390625e-6
perturbing for the 1.0th time. rate = 0.1
couldn't find a better location. Adjust stepSize or number of samples K
151074.8892890646
Iter     Function value   Gradient norm 
     0     1.510749e+05     3.610469e+07
 * time: 7.867813110351562e-6
----------------------------------------------
The true error, without regularization: 150266.42410275247
----------------------------------------------
perturbing for the 2.0th time. rate = 0.080000006
couldn't find a better location. Adjust stepSize or number of samples K
151123.3801267771
Iter     Function value   Gradient norm 
     0     1.511234e+05     3.896900e+07
 * time: 6.9141387939453125e-6
----------------------------------------------
The true error, without regularization: 150265.6955455373
----------------------------------------------
perturbing for the 3.0th time. rate = 0.064
couldn't find a better location. Adjust stepSize or number of samples K
151189.99216769444
Iter     Function value   Gradient norm 
     0     1.511900e+05     3.920252e+07
 * time: 7.867813110351562e-6
----------------------------------------------
The true error, without regularization: 150283.82973544055
----------------------------------------------
perturbing for the 4.0th time. rate = 0.051200002
couldn't find a better location. Adjust stepSize or number of samples K
151248.74328771254
Iter     Function value   Gradient norm 
     0     1.512487e+05     4.040973e+07
 * time: 6.9141387939453125e-6
----------------------------------------------
The true error, without regularization: 150310.95461827784
----------------------------------------------
perturbing for the 5.0th time. rate = 0.040960003
couldn't find a better location. Adjust stepSize or number of samples K
151298.66446791607
Iter     Function value   Gradient norm 
     0     1.512987e+05     4.052608e+07
 * time: 1.0967254638671875e-5
----------------------------------------------
The true error, without regularization: 150312.76198490348
----------------------------------------------
perturbing for the 6.0th time. rate = 0.032768004
couldn't find a better location. Adjust stepSize or number of samples K
151331.35998891524
Iter     Function value   Gradient norm 
     0     1.513314e+05     3.941868e+07
 * time: 7.152557373046875e-6
----------------------------------------------
The true error, without regularization: 150229.8083444194
----------------------------------------------
perturbing for the 7.0th time. rate = 0.026214404
couldn't find a better location. Adjust stepSize or number of samples K
151278.92006004907
Iter     Function value   Gradient norm 
     0     1.512789e+05     3.106997e+07
 * time: 1.0967254638671875e-5
----------------------------------------------
The true error, without regularization: 150245.83094629095
----------------------------------------------
perturbing for the 8.0th time. rate = 0.020971524
couldn't find a better location. Adjust stepSize or number of samples K
151299.98078750318
Iter     Function value   Gradient norm 
     0     1.513000e+05     3.205132e+07
 * time: 5.9604644775390625e-6
----------------------------------------------
The true error, without regularization: 150251.4593598484
----------------------------------------------
perturbing for the 9.0th time. rate = 0.01677722
couldn't find a better location. Adjust stepSize or number of samples K
151320.13595771935
Iter     Function value   Gradient norm 
     0     1.513201e+05     3.273396e+07
 * time: 8.106231689453125e-6
----------------------------------------------
The true error, without regularization: 150265.86329038403
----------------------------------------------
perturbing for the 10.0th time. rate = 0.013421776
couldn't find a better location. Adjust stepSize or number of samples K
151336.3785323655
Iter     Function value   Gradient norm 
     0     1.513364e+05     3.202482e+07
 * time: 7.867813110351562e-6
----------------------------------------------
The true error, without regularization: 150273.45878631924
----------------------------------------------
perturbing for the 11.0th time. rate = 0.010737421
couldn't find a better location. Adjust stepSize or number of samples K
151350.72303905472
Iter     Function value   Gradient norm 
     0     1.513507e+05     3.307140e+07
 * time: 5.0067901611328125e-6
----------------------------------------------
The true error, without regularization: 150278.95546083566
----------------------------------------------
perturbing for the 12.0th time. rate = 0.008589937
couldn't find a better location. Adjust stepSize or number of samples K
151363.42534357565
Iter     Function value   Gradient norm 
     0     1.513634e+05     3.318441e+07
 * time: 5.0067901611328125e-6
----------------------------------------------
The true error, without regularization: 150282.6533483709
----------------------------------------------
perturbing for the 13.0th time. rate = 0.00687195
couldn't find a better location. Adjust stepSize or number of samples K
151372.10986967795
Iter     Function value   Gradient norm 
     0     1.513721e+05     3.310999e+07
 * time: 7.152557373046875e-6
----------------------------------------------
The true error, without regularization: 150284.27423195005
----------------------------------------------
Out of time
-----------------------------------------------------------------------
target value 424.57894736842104
-----------------------------------------------------------------------
allowed time = 270.06275650422754
Iter     Function value   Gradient norm 
     0     1.725972e+05     3.921245e+07
 * time: 5.9604644775390625e-6
perturbing for the 1.0th time. rate = 0.1
couldn't find a better location. Adjust stepSize or number of samples K
172683.8659353455
Iter     Function value   Gradient norm 
     0     1.726839e+05     3.452738e+07
 * time: 5.9604644775390625e-6
----------------------------------------------
The true error, without regularization: 171472.7480198672
----------------------------------------------
perturbing for the 2.0th time. rate = 0.080000006
couldn't find a better location. Adjust stepSize or number of samples K
172805.2356732169
Iter     Function value   Gradient norm 
     0     1.728052e+05     3.645512e+07
 * time: 6.9141387939453125e-6
----------------------------------------------
The true error, without regularization: 171527.50160070136
----------------------------------------------
perturbing for the 3.0th time. rate = 0.064
couldn't find a better location. Adjust stepSize or number of samples K
172930.98832073505
Iter     Function value   Gradient norm 
     0     1.729310e+05     3.672423e+07
 * time: 6.9141387939453125e-6
----------------------------------------------
The true error, without regularization: 171443.10190496547
----------------------------------------------
perturbing for the 4.0th time. rate = 0.051200002
couldn't find a better location. Adjust stepSize or number of samples K
172895.71718979717
Iter     Function value   Gradient norm 
     0     1.728957e+05     2.625418e+07
 * time: 7.152557373046875e-6
----------------------------------------------
The true error, without regularization: 171472.86583339007
----------------------------------------------
perturbing for the 5.0th time. rate = 0.040960003
couldn't find a better location. Adjust stepSize or number of samples K
172950.74118108844
Iter     Function value   Gradient norm 
     0     1.729507e+05     2.676618e+07
 * time: 8.106231689453125e-6
----------------------------------------------
The true error, without regularization: 171483.35949367745
----------------------------------------------
perturbing for the 6.0th time. rate = 0.032768004
couldn't find a better location. Adjust stepSize or number of samples K
172997.8874032215
Iter     Function value   Gradient norm 
     0     1.729979e+05     2.737348e+07
 * time: 5.9604644775390625e-6
----------------------------------------------
The true error, without regularization: 171516.44644116433
----------------------------------------------
perturbing for the 7.0th time. rate = 0.026214404
couldn't find a better location. Adjust stepSize or number of samples K
173039.44942066635
Iter     Function value   Gradient norm 
     0     1.730394e+05     2.850010e+07
 * time: 3.814697265625e-6
----------------------------------------------
The true error, without regularization: 171543.54957385815
----------------------------------------------
perturbing for the 8.0th time. rate = 0.020971524
couldn't find a better location. Adjust stepSize or number of samples K
173066.68476162173
Iter     Function value   Gradient norm 
     0     1.730667e+05     2.838263e+07
 * time: 7.867813110351562e-6
----------------------------------------------
The true error, without regularization: 171564.78499645242
----------------------------------------------
perturbing for the 9.0th time. rate = 0.01677722
couldn't find a better location. Adjust stepSize or number of samples K
173095.2232275454
Iter     Function value   Gradient norm 
     0     1.730952e+05     2.805570e+07
 * time: 8.106231689453125e-6
----------------------------------------------
The true error, without regularization: 171543.3575611796
----------------------------------------------
perturbing for the 10.0th time. rate = 0.013421776
couldn't find a better location. Adjust stepSize or number of samples K
173100.83533391828
Iter     Function value   Gradient norm 
     0     1.731008e+05     2.639016e+07
 * time: 5.0067901611328125e-6
----------------------------------------------
The true error, without regularization: 171485.87451606174
----------------------------------------------
perturbing for the 11.0th time. rate = 0.010737421
couldn't find a better location. Adjust stepSize or number of samples K
173066.7536010136
Iter     Function value   Gradient norm 
     0     1.730668e+05     2.318279e+07
 * time: 6.9141387939453125e-6
----------------------------------------------
The true error, without regularization: 171491.75489308976
----------------------------------------------
Out of time
-----------------------------------------------------------------------
target value 451.05263157894734
-----------------------------------------------------------------------
allowed time = 269.9254564886775
Iter     Function value   Gradient norm 
     0     1.956931e+05     2.846672e+07
 * time: 6.9141387939453125e-6
perturbing for the 1.0th time. rate = 0.1
couldn't find a better location. Adjust stepSize or number of samples K
195853.39666747133
Iter     Function value   Gradient norm 
     0     1.958534e+05     2.792548e+07
 * time: 5.9604644775390625e-6
----------------------------------------------
The true error, without regularization: 194133.68431975727
----------------------------------------------
perturbing for the 2.0th time. rate = 0.080000006
couldn't find a better location. Adjust stepSize or number of samples K
196001.84907996233
Iter     Function value   Gradient norm 
     0     1.960018e+05     2.885401e+07
 * time: 7.867813110351562e-6
----------------------------------------------
The true error, without regularization: 194159.3147008432
----------------------------------------------
perturbing for the 3.0th time. rate = 0.064
couldn't find a better location. Adjust stepSize or number of samples K
196120.6020822907
Iter     Function value   Gradient norm 
     0     1.961206e+05     2.780293e+07
 * time: 7.152557373046875e-6
----------------------------------------------
The true error, without regularization: 194108.07388957345
----------------------------------------------
perturbing for the 4.0th time. rate = 0.051200002
couldn't find a better location. Adjust stepSize or number of samples K
196128.63654258213
Iter     Function value   Gradient norm 
     0     1.961286e+05     2.449243e+07
 * time: 8.106231689453125e-6
----------------------------------------------
The true error, without regularization: 194169.1647788934
----------------------------------------------
perturbing for the 5.0th time. rate = 0.040960003
couldn't find a better location. Adjust stepSize or number of samples K
196209.72251487934
Iter     Function value   Gradient norm 
     0     1.962097e+05     2.519446e+07
 * time: 5.9604644775390625e-6
----------------------------------------------
The true error, without regularization: 194202.9642674139
----------------------------------------------
perturbing for the 6.0th time. rate = 0.032768004
couldn't find a better location. Adjust stepSize or number of samples K
196272.65180353003
Iter     Function value   Gradient norm 
     0     1.962727e+05     2.410710e+07
 * time: 6.9141387939453125e-6
----------------------------------------------
The true error, without regularization: 194169.5649254425
----------------------------------------------
perturbing for the 7.0th time. rate = 0.026214404
couldn't find a better location. Adjust stepSize or number of samples K
196297.18668185454
Iter     Function value   Gradient norm 
     0     1.962972e+05     2.233554e+07
 * time: 5.0067901611328125e-6
----------------------------------------------
The true error, without regularization: 194160.96957684844
----------------------------------------------
perturbing for the 8.0th time. rate = 0.020971524
couldn't find a better location. Adjust stepSize or number of samples K
196304.96419241553
Iter     Function value   Gradient norm 
     0     1.963050e+05     2.134681e+07
 * time: 5.0067901611328125e-6
----------------------------------------------
The true error, without regularization: 194169.9331905341
----------------------------------------------
perturbing for the 9.0th time. rate = 0.01677722
couldn't find a better location. Adjust stepSize or number of samples K
196325.69806043938
Iter     Function value   Gradient norm 
     0     1.963257e+05     2.138603e+07
 * time: 5.9604644775390625e-6
----------------------------------------------
The true error, without regularization: 194189.40475674154
----------------------------------------------
perturbing for the 10.0th time. rate = 0.013421776
couldn't find a better location. Adjust stepSize or number of samples K
196350.44746026333
Iter     Function value   Gradient norm 
     0     1.963504e+05     2.199845e+07
 * time: 5.9604644775390625e-6
----------------------------------------------
The true error, without regularization: 194207.18636836924
----------------------------------------------
perturbing for the 11.0th time. rate = 0.010737421
couldn't find a better location. Adjust stepSize or number of samples K
196371.9653354858
Iter     Function value   Gradient norm 
     0     1.963720e+05     2.160025e+07
 * time: 6.9141387939453125e-6
----------------------------------------------
The true error, without regularization: 194223.55645035696
----------------------------------------------
perturbing for the 12.0th time. rate = 0.008589937
couldn't find a better location. Adjust stepSize or number of samples K
196391.32207805253
Iter     Function value   Gradient norm 
     0     1.963913e+05     2.211773e+07
 * time: 5.9604644775390625e-6
----------------------------------------------
The true error, without regularization: 194226.52804733792
----------------------------------------------
perturbing for the 13.0th time. rate = 0.00687195
couldn't find a better location. Adjust stepSize or number of samples K
196404.73043714406
Iter     Function value   Gradient norm 
     0     1.964047e+05     2.200550e+07
 * time: 5.0067901611328125e-6
----------------------------------------------
The true error, without regularization: 194233.42797609657
----------------------------------------------
Out of time
-----------------------------------------------------------------------
target value 477.5263157894737
-----------------------------------------------------------------------
allowed time = 263.19938672931085
Iter     Function value   Gradient norm 
     0     2.204402e+05     2.537399e+07
 * time: 7.152557373046875e-6
perturbing for the 1.0th time. rate = 0.1
couldn't find a better location. Adjust stepSize or number of samples K
220586.38607642864
Iter     Function value   Gradient norm 
     0     2.205864e+05     2.104197e+07
 * time: 9.059906005859375e-6
----------------------------------------------
The true error, without regularization: 218242.86845323385
----------------------------------------------
perturbing for the 2.0th time. rate = 0.080000006
couldn't find a better location. Adjust stepSize or number of samples K
220743.0279679655
Iter     Function value   Gradient norm 
     0     2.207430e+05     2.145741e+07
 * time: 5.0067901611328125e-6
----------------------------------------------
The true error, without regularization: 218317.59441312484
----------------------------------------------
perturbing for the 3.0th time. rate = 0.064
couldn't find a better location. Adjust stepSize or number of samples K
220896.2052590853
Iter     Function value   Gradient norm 
     0     2.208962e+05     2.128760e+07
 * time: 7.867813110351562e-6
----------------------------------------------
The true error, without regularization: 218189.3479258584
----------------------------------------------
perturbing for the 4.0th time. rate = 0.051200002
couldn't find a better location. Adjust stepSize or number of samples K
220920.3591513769
Iter     Function value   Gradient norm 
     0     2.209204e+05     1.807825e+07
 * time: 6.9141387939453125e-6
----------------------------------------------
The true error, without regularization: 218242.696186317
----------------------------------------------
perturbing for the 5.0th time. rate = 0.040960003
couldn't find a better location. Adjust stepSize or number of samples K
221017.21225439274
Iter     Function value   Gradient norm 
     0     2.210172e+05     1.792336e+07
 * time: 6.198883056640625e-6
----------------------------------------------
The true error, without regularization: 218293.17266096873
----------------------------------------------
perturbing for the 6.0th time. rate = 0.032768004
couldn't find a better location. Adjust stepSize or number of samples K
221094.64966866752
Iter     Function value   Gradient norm 
     0     2.210946e+05     1.795410e+07
 * time: 5.9604644775390625e-6
----------------------------------------------
The true error, without regularization: 218314.2618861146
----------------------------------------------
perturbing for the 7.0th time. rate = 0.026214404
couldn't find a better location. Adjust stepSize or number of samples K
221159.40016523158
Iter     Function value   Gradient norm 
     0     2.211594e+05     1.828668e+07
 * time: 7.867813110351562e-6
----------------------------------------------
The true error, without regularization: 218327.22015620538
----------------------------------------------
perturbing for the 8.0th time. rate = 0.020971524
couldn't find a better location. Adjust stepSize or number of samples K
221208.85901037036
Iter     Function value   Gradient norm 
     0     2.212089e+05     1.840677e+07
 * time: 5.9604644775390625e-6
----------------------------------------------
The true error, without regularization: 218309.63725368836
----------------------------------------------
perturbing for the 9.0th time. rate = 0.01677722
couldn't find a better location. Adjust stepSize or number of samples K
221224.48618767757
Iter     Function value   Gradient norm 
     0     2.212245e+05     1.737185e+07
 * time: 5.9604644775390625e-6
----------------------------------------------
The true error, without regularization: 218250.4405071218
----------------------------------------------
perturbing for the 10.0th time. rate = 0.013421776
couldn't find a better location. Adjust stepSize or number of samples K
221214.53656156707
Iter     Function value   Gradient norm 
     0     2.212145e+05     1.601126e+07
 * time: 7.867813110351562e-6
----------------------------------------------
The true error, without regularization: 218266.18771086048
----------------------------------------------
perturbing for the 11.0th time. rate = 0.010737421
couldn't find a better location. Adjust stepSize or number of samples K
221238.2188567464
Iter     Function value   Gradient norm 
     0     2.212382e+05     1.644201e+07
 * time: 5.9604644775390625e-6
----------------------------------------------
The true error, without regularization: 218283.07680750775
----------------------------------------------
perturbing for the 12.0th time. rate = 0.008589937
couldn't find a better location. Adjust stepSize or number of samples K
221257.8381806271
Iter     Function value   Gradient norm 
     0     2.212578e+05     1.644285e+07
 * time: 6.9141387939453125e-6
----------------------------------------------
The true error, without regularization: 218293.48356626352
----------------------------------------------
Out of time
-----------------------------------------------------------------------
target value 504.0
-----------------------------------------------------------------------
allowed time = 250.9039612019169
Iter     Function value   Gradient norm 
     0     2.466967e+05     1.888325e+07
 * time: 6.9141387939453125e-6
perturbing for the 1.0th time. rate = 0.1
couldn't find a better location. Adjust stepSize or number of samples K
246912.1713257496
Iter     Function value   Gradient norm 
     0     2.469122e+05     1.709972e+07
 * time: 5.0067901611328125e-6
----------------------------------------------
The true error, without regularization: 243641.83624172478
----------------------------------------------
perturbing for the 2.0th time. rate = 0.080000006
couldn't find a better location. Adjust stepSize or number of samples K
247126.23193053648
Iter     Function value   Gradient norm 
     0     2.471262e+05     1.770339e+07
 * time: 5.0067901611328125e-6
----------------------------------------------
The true error, without regularization: 243741.2070109364
----------------------------------------------
perturbing for the 3.0th time. rate = 0.064
couldn't find a better location. Adjust stepSize or number of samples K
247304.82330005057
Iter     Function value   Gradient norm 
     0     2.473048e+05     1.740659e+07
 * time: 8.106231689453125e-6
----------------------------------------------
The true error, without regularization: 243784.96214195527
----------------------------------------------
perturbing for the 4.0th time. rate = 0.051200002
couldn't find a better location. Adjust stepSize or number of samples K
247472.91726875093
Iter     Function value   Gradient norm 
     0     2.474729e+05     1.759849e+07
 * time: 6.9141387939453125e-6
----------------------------------------------
The true error, without regularization: 243781.74909848388
----------------------------------------------
perturbing for the 5.0th time. rate = 0.040960003
couldn't find a better location. Adjust stepSize or number of samples K
247568.77308241872
Iter     Function value   Gradient norm 
     0     2.475688e+05     1.728155e+07
 * time: 7.867813110351562e-6
----------------------------------------------
The true error, without regularization: 243738.97553791746
----------------------------------------------
perturbing for the 6.0th time. rate = 0.032768004
couldn't find a better location. Adjust stepSize or number of samples K
247624.34576657205
Iter     Function value   Gradient norm 
     0     2.476243e+05     1.569311e+07
 * time: 6.9141387939453125e-6
----------------------------------------------
The true error, without regularization: 243654.12931790846
----------------------------------------------
perturbing for the 7.0th time. rate = 0.026214404
couldn't find a better location. Adjust stepSize or number of samples K
247635.27766722036
Iter     Function value   Gradient norm 
     0     2.476353e+05     1.391222e+07
 * time: 5.0067901611328125e-6
----------------------------------------------
The true error, without regularization: 243674.98778061123
----------------------------------------------
perturbing for the 8.0th time. rate = 0.020971524
couldn't find a better location. Adjust stepSize or number of samples K
247683.23307221226
Iter     Function value   Gradient norm 
     0     2.476832e+05     1.427297e+07
 * time: 5.0067901611328125e-6
----------------------------------------------
The true error, without regularization: 243712.31421904717
----------------------------------------------
perturbing for the 9.0th time. rate = 0.01677722
couldn't find a better location. Adjust stepSize or number of samples K
247734.49238243603
Iter     Function value   Gradient norm 
     0     2.477345e+05     1.435306e+07
 * time: 9.059906005859375e-6
----------------------------------------------
The true error, without regularization: 243732.39481724292
----------------------------------------------
perturbing for the 10.0th time. rate = 0.013421776
couldn't find a better location. Adjust stepSize or number of samples K
247771.65121276205
Iter     Function value   Gradient norm 
     0     2.477717e+05     1.455812e+07
 * time: 7.867813110351562e-6
----------------------------------------------
The true error, without regularization: 243741.33979522064
----------------------------------------------
perturbing for the 11.0th time. rate = 0.010737421
couldn't find a better location. Adjust stepSize or number of samples K
247795.24819108174
Iter     Function value   Gradient norm 
     0     2.477952e+05     1.417305e+07
 * time: 6.9141387939453125e-6
----------------------------------------------
The true error, without regularization: 243757.94145029195
----------------------------------------------
perturbing for the 12.0th time. rate = 0.008589937
couldn't find a better location. Adjust stepSize or number of samples K
247822.18776768137
Iter     Function value   Gradient norm 
     0     2.478222e+05     1.454521e+07
 * time: 6.9141387939453125e-6
----------------------------------------------
The true error, without regularization: 243772.74479594533
----------------------------------------------
Out of time
